/* -*- Mode: C; tab-width: 4; indent-tabs-mode: nil; c-basic-offset: 4 -*- */
/*
Copyright (c) 1999 Ng Pheng Siong. All rights reserved.

Portions Copyright (c) 2004-2007 Open Source Applications Foundation.
Author: Heikki Toivonen

Copyright (c) 2009-2010 Heikki Toivonen. All rights reserved.

*/

%include <openssl/opensslconf.h>

%{
#include <assert.h>
#include <openssl/err.h>
#include <openssl/evp.h>
#include <openssl/hmac.h>
#include <openssl/rsa.h>
#include <openssl/opensslv.h>
%}

/*
from openssl/crypto/include/internal/evp_int.h struct evp_md_st
typedef struct evp_md_st EVP_MD;
from openssl/crypto/evp/evp_locl.h evp_md_ctx_st
typedef struct evp_md_ctx_st EVP_MD_CTX;
*/

%apply Pointer NONNULL { EVP_MD_CTX * };
%apply Pointer NONNULL { EVP_MD * };
%apply Pointer NONNULL { EVP_PKEY * };
%apply Pointer NONNULL { HMAC_CTX * };
%apply Pointer NONNULL { EVP_CIPHER_CTX * };
%apply Pointer NONNULL { EVP_CIPHER * };
%apply Pointer NONNULL { RSA * };

%rename(md5) EVP_md5;
extern const EVP_MD *EVP_md5(void);
%rename(sha1) EVP_sha1;
extern const EVP_MD *EVP_sha1(void);
%rename(ripemd160) EVP_ripemd160;
extern const EVP_MD *EVP_ripemd160(void);

#if OPENSSL_VERSION_NUMBER >= 0x0090800fL
%rename(sha224) EVP_sha224;
extern const EVP_MD *EVP_sha224(void);
%rename(sha256) EVP_sha256;
extern const EVP_MD *EVP_sha256(void);
%rename(sha384) EVP_sha384;
extern const EVP_MD *EVP_sha384(void);
%rename(sha512) EVP_sha512;
extern const EVP_MD *EVP_sha512(void);
#endif

%rename(digest_init) EVP_DigestInit;
extern int EVP_DigestInit(EVP_MD_CTX *, const EVP_MD *);

%rename(get_digestbyname) EVP_get_digestbyname;
extern EVP_MD *EVP_get_digestbyname(const char * name);

%rename(des_ecb) EVP_des_ecb;
extern const EVP_CIPHER *EVP_des_ecb(void);
%rename(des_ede_ecb) EVP_des_ede;
extern const EVP_CIPHER *EVP_des_ede(void);
%rename(des_ede3_ecb) EVP_des_ede3;
extern const EVP_CIPHER *EVP_des_ede3(void);
%rename(des_cbc) EVP_des_cbc;
extern const EVP_CIPHER *EVP_des_cbc(void);
%rename(des_ede_cbc) EVP_des_ede_cbc;
extern const EVP_CIPHER *EVP_des_ede_cbc(void);
%rename(des_ede3_cbc) EVP_des_ede3_cbc;
extern const EVP_CIPHER *EVP_des_ede3_cbc(void);
%rename(des_cfb) EVP_des_cfb;
extern const EVP_CIPHER *EVP_des_cfb(void);
%rename(des_ede_cfb) EVP_des_ede_cfb;
extern const EVP_CIPHER *EVP_des_ede_cfb(void);
%rename(des_ede3_cfb) EVP_des_ede3_cfb;
extern const EVP_CIPHER *EVP_des_ede3_cfb(void);
%rename(des_ofb) EVP_des_ofb;
extern const EVP_CIPHER *EVP_des_ofb(void);
%rename(des_ede_ofb) EVP_des_ede_ofb;
extern const EVP_CIPHER *EVP_des_ede_ofb(void);
%rename(des_ede3_ofb) EVP_des_ede3_ofb;
extern const EVP_CIPHER *EVP_des_ede3_ofb(void);
%rename(bf_ecb) EVP_bf_ecb;
extern const EVP_CIPHER *EVP_bf_ecb(void);
%rename(bf_cbc) EVP_bf_cbc;
extern const EVP_CIPHER *EVP_bf_cbc(void);
%rename(bf_cfb) EVP_bf_cfb;
extern const EVP_CIPHER *EVP_bf_cfb(void);
%rename(bf_ofb) EVP_bf_ofb;
extern const EVP_CIPHER *EVP_bf_ofb(void);
/*
%rename(idea_ecb) extern const EVP_CIPHER *EVP_idea_ecb(void);
%rename(idea_cbc) extern const EVP_CIPHER *EVP_idea_cbc(void);
%rename(idea_cfb) extern const EVP_CIPHER *EVP_idea_cfb(void);
%rename(idea_ofb) extern const EVP_CIPHER *EVP_idea_ofb(void);
*/
%rename(cast5_ecb) EVP_cast5_ecb;
extern const EVP_CIPHER *EVP_cast5_ecb(void);
%rename(cast5_cbc) EVP_cast5_cbc;
extern const EVP_CIPHER *EVP_cast5_cbc(void);
%rename(cast5_cfb) EVP_cast5_cfb;
extern const EVP_CIPHER *EVP_cast5_cfb(void);
%rename(cast5_ofb) EVP_cast5_ofb;
extern const EVP_CIPHER *EVP_cast5_ofb(void);
/*
%rename(rc5_ecb) extern const EVP_CIPHER *EVP_rc5_32_12_16_ecb(void);
%rename(rc5_cbc) extern const EVP_CIPHER *EVP_rc5_32_12_16_cbc(void);
%rename(rc5_cfb) extern const EVP_CIPHER *EVP_rc5_32_12_16_cfb(void);
%rename(rc5_ofb) extern const EVP_CIPHER *EVP_rc5_32_12_16_ofb(void);
*/
%rename(rc4) EVP_rc4;
extern const EVP_CIPHER *EVP_rc4(void);
#if !defined(OPENSSL_NO_RC2)
%rename(rc2_40_cbc) EVP_rc2_40_cbc;
extern const EVP_CIPHER *EVP_rc2_40_cbc(void);
#endif
%rename(aes_128_ecb) EVP_aes_128_ecb;
extern const EVP_CIPHER *EVP_aes_128_ecb(void);
%rename(aes_128_cbc) EVP_aes_128_cbc;
extern const EVP_CIPHER *EVP_aes_128_cbc(void);
%rename(aes_128_cfb) EVP_aes_128_cfb;
extern const EVP_CIPHER *EVP_aes_128_cfb(void);
%rename(aes_128_ofb) EVP_aes_128_ofb;
extern const EVP_CIPHER *EVP_aes_128_ofb(void);
%rename(aes_128_ctr) EVP_aes_128_ctr;
extern const EVP_CIPHER *EVP_aes_128_ctr(void);
%rename(aes_192_ecb) EVP_aes_192_ecb;
extern const EVP_CIPHER *EVP_aes_192_ecb(void);
%rename(aes_192_cbc) EVP_aes_192_cbc;
extern const EVP_CIPHER *EVP_aes_192_cbc(void);
%rename(aes_192_cfb) EVP_aes_192_cfb;
extern const EVP_CIPHER *EVP_aes_192_cfb(void);
%rename(aes_192_ofb) EVP_aes_192_ofb;
extern const EVP_CIPHER *EVP_aes_192_ofb(void);
%rename(aes_192_ctr) EVP_aes_192_ctr;
extern const EVP_CIPHER *EVP_aes_192_ctr(void);
%rename(aes_256_ecb) EVP_aes_256_ecb;
extern const EVP_CIPHER *EVP_aes_256_ecb(void);
%rename(aes_256_cbc) EVP_aes_256_cbc;
extern const EVP_CIPHER *EVP_aes_256_cbc(void);
%rename(aes_256_cfb) EVP_aes_256_cfb;
extern const EVP_CIPHER *EVP_aes_256_cfb(void);
%rename(aes_256_ofb) EVP_aes_256_ofb;
extern const EVP_CIPHER *EVP_aes_256_ofb(void);
%rename(aes_256_ctr) EVP_aes_256_ctr;
extern EVP_CIPHER const *EVP_aes_256_ctr(void);

%rename(cipher_set_padding) EVP_CIPHER_CTX_set_padding;
extern int EVP_CIPHER_CTX_set_padding(EVP_CIPHER_CTX *, int);


%rename(cipher_set_padding) EVP_CIPHER_CTX_set_padding;
extern int EVP_CIPHER_CTX_set_padding(EVP_CIPHER_CTX *x, int padding);
%rename(pkey_new) EVP_PKEY_new;

extern EVP_PKEY *EVP_PKEY_new(void);
%rename(pkey_free) EVP_PKEY_free;
extern void EVP_PKEY_free(EVP_PKEY *);
%rename(pkey_assign) EVP_PKEY_assign;
extern int EVP_PKEY_assign(EVP_PKEY *, int, char *);
#if OPENSSL_VERSION_NUMBER >= 0x0090800fL && !defined(OPENSSL_NO_EC)
%rename(pkey_assign_ec) EVP_PKEY_assign_EC_KEY;
extern int EVP_PKEY_assign_EC_KEY(EVP_PKEY *, EC_KEY *);
#endif
%rename(pkey_set1_rsa) EVP_PKEY_set1_RSA;
extern int EVP_PKEY_set1_RSA(EVP_PKEY *, RSA *);
%rename(pkey_get1_rsa) EVP_PKEY_get1_RSA;
extern RSA* EVP_PKEY_get1_RSA(EVP_PKEY *);
%rename(sign_init) EVP_SignInit;
extern int EVP_SignInit(EVP_MD_CTX *, const EVP_MD *);
%rename(verify_init) EVP_VerifyInit;
extern int EVP_VerifyInit(EVP_MD_CTX *, const EVP_MD *);
%rename(pkey_size) EVP_PKEY_size;
extern int EVP_PKEY_size(EVP_PKEY *);

%inline %{
#define PKCS5_SALT_LEN  8

static PyObject *_evp_err;

void evp_init(PyObject *evp_err) {
    Py_INCREF(evp_err);
    _evp_err = evp_err;
}

PyObject *pkcs5_pbkdf2_hmac_sha1(PyObject *pass,
                                 PyObject *salt,
                                 int iter,
                                 int keylen) {
    unsigned char *key;
    unsigned char *saltbuf;
    char *passbuf;
    PyObject *ret;
    int passlen, saltlen;

    if (m2_PyObject_AsReadBufferInt(pass, (const void **)&passbuf,
                                    &passlen) == -1)
        return NULL;
    if (m2_PyObject_AsReadBufferInt(salt, (const void **)&saltbuf,
                                    &saltlen) == -1)
        return NULL;

    key = PyMem_Malloc(keylen);
    if (key == NULL)
	return PyErr_NoMemory();
    PKCS5_PBKDF2_HMAC_SHA1(passbuf, passlen, saltbuf, saltlen, iter,
                           keylen, key);
#if PY_MAJOR_VERSION >= 3
    ret = PyBytes_FromStringAndSize((char*)key, keylen);
#else
    ret = PyString_FromStringAndSize((char*)key, keylen);
#endif
    OPENSSL_cleanse(key, keylen);
    PyMem_Free(key);
    return ret;
}

EVP_MD_CTX *md_ctx_new(void) {
    EVP_MD_CTX *ctx;

    if (!(ctx = EVP_MD_CTX_create())) {
        PyErr_SetString(PyExc_MemoryError, "md_ctx_new");
    }
    return ctx;
}

void md_ctx_free(EVP_MD_CTX *ctx) {
    EVP_MD_CTX_destroy(ctx);
}

int digest_update(EVP_MD_CTX *ctx, PyObject *blob) {
    const void *buf;
    Py_ssize_t len;

    if (PyObject_AsReadBuffer(blob, &buf, &len) == -1)
        return -1;

    return EVP_DigestUpdate(ctx, buf, len);
}

PyObject *digest_final(EVP_MD_CTX *ctx) {
    void *blob;
    int blen;
    PyObject *ret;

    if (!(blob = PyMem_Malloc(ctx->digest->md_size))) {
        PyErr_SetString(PyExc_MemoryError, "digest_final");
        return NULL;
    }
    if (!EVP_DigestFinal(ctx, blob, (unsigned int *)&blen)) {
        PyMem_Free(blob);
        PyErr_SetString(_evp_err, ERR_reason_error_string(ERR_get_error()));
        return NULL;
    }

#if PY_MAJOR_VERSION >= 3
    ret = PyBytes_FromStringAndSize(blob, blen);
#else
    ret = PyString_FromStringAndSize(blob, blen);
#endif

    PyMem_Free(blob);
    return ret;
}

HMAC_CTX *hmac_ctx_new(void) {
    HMAC_CTX *ctx;

    if (!(ctx = (HMAC_CTX *)PyMem_Malloc(sizeof(HMAC_CTX)))) {
        PyErr_SetString(PyExc_MemoryError, "hmac_ctx_new");
        return NULL;
    }
    HMAC_CTX_init(ctx);
    return ctx;
}

void hmac_ctx_free(HMAC_CTX *ctx) {
    HMAC_CTX_cleanup(ctx);
    PyMem_Free((void *)ctx);
}

PyObject *hmac_init(HMAC_CTX *ctx, PyObject *key, const EVP_MD *md) {
    const void *kbuf;
    int klen;

    if (m2_PyObject_AsReadBufferInt(key, &kbuf, &klen) == -1)
        return NULL;

    if (!HMAC_Init(ctx, kbuf, klen, md)) {
        PyErr_SetString(_evp_err, "HMAC_Init failed");
        return NULL;
    }
    Py_INCREF(Py_None);
    return Py_None;
}

PyObject *hmac_update(HMAC_CTX *ctx, PyObject *blob) {
    const void *buf;
    Py_ssize_t len;

    if (PyObject_AsReadBuffer(blob, &buf, &len) == -1)
        return NULL;

    if (!HMAC_Update(ctx, buf, len)) {
        PyErr_SetString(_evp_err, "HMAC_Update failed");
        return NULL;
    }
    Py_INCREF(Py_None);
    return Py_None;
}

PyObject *hmac_final(HMAC_CTX *ctx) {
    void *blob;
    int blen;
    PyObject *ret;

    if (!(blob = PyMem_Malloc(ctx->md->md_size))) {
        PyErr_SetString(PyExc_MemoryError, "hmac_final");
        return NULL;
    }

    if (!HMAC_Final(ctx, blob, (unsigned int *)&blen)) {
        PyErr_SetString(_evp_err, "HMAC_Final failed");
        return NULL;
    }

#if PY_MAJOR_VERSION >= 3
    ret = PyBytes_FromStringAndSize(blob, blen);
#else
    ret = PyString_FromStringAndSize(blob, blen);
#endif

    PyMem_Free(blob);
    return ret;
}

PyObject *hmac(PyObject *key, PyObject *data, const EVP_MD *md) {
    const void *kbuf, *dbuf;
    void *blob;
    int klen;
    unsigned int blen;
    Py_ssize_t dlen;
    PyObject *ret;

    if ((m2_PyObject_AsReadBufferInt(key, &kbuf, &klen) == -1)
        || (PyObject_AsReadBuffer(data, &dbuf, &dlen) == -1))
        return NULL;

    if (!(blob = PyMem_Malloc(EVP_MAX_MD_SIZE))) {
        PyErr_SetString(PyExc_MemoryError, "hmac");
        return NULL;
    }
    HMAC(md, kbuf, klen, dbuf, dlen, blob, &blen);
    blob = PyMem_Realloc(blob, blen);

#if PY_MAJOR_VERSION >= 3
    ret = PyBytes_FromStringAndSize(blob, blen);
#else
    ret = PyString_FromStringAndSize(blob, blen);
#endif

    PyMem_Free(blob);
    return ret;
}

EVP_CIPHER_CTX *cipher_ctx_new(void) {
    EVP_CIPHER_CTX *ctx;

    if (!(ctx = (EVP_CIPHER_CTX *)PyMem_Malloc(sizeof(EVP_CIPHER_CTX)))) {
        PyErr_SetString(PyExc_MemoryError, "cipher_ctx_new");
        return NULL;
    }
    EVP_CIPHER_CTX_init(ctx);
    return ctx;
}

void cipher_ctx_free(EVP_CIPHER_CTX *ctx) {
    EVP_CIPHER_CTX_cleanup(ctx);
    PyMem_Free((void *)ctx);
}

PyObject *bytes_to_key(const EVP_CIPHER *cipher, EVP_MD *md,
                        PyObject *data, PyObject *salt,
                        PyObject *iv, /* Not used */
                        int iter) {
    unsigned char key[EVP_MAX_KEY_LENGTH];
    const void *dbuf, *sbuf;
    int dlen, klen;
    Py_ssize_t slen;
    PyObject *ret;

    if ((m2_PyObject_AsReadBufferInt(data, &dbuf, &dlen) == -1)
        || (PyObject_AsReadBuffer(salt, &sbuf, &slen) == -1))
        return NULL;

    assert((slen == 8) || (slen == 0));
    klen = EVP_BytesToKey(cipher, md, (unsigned char *)sbuf,
        (unsigned char *)dbuf, dlen, iter,
        key, NULL); /* Since we are not returning IV no need to derive it */

#if PY_MAJOR_VERSION >= 3
    ret = PyBytes_FromStringAndSize((char*)key, klen);
#else
    ret = PyString_FromStringAndSize((char*)key, klen);
#endif

    return ret;
}

PyObject *cipher_init(EVP_CIPHER_CTX *ctx, const EVP_CIPHER *cipher,
                        PyObject *key, PyObject *iv, int mode) {
    const void *kbuf, *ibuf;
    Py_ssize_t klen, ilen;

    if ((PyObject_AsReadBuffer(key, &kbuf, &klen) == -1)
        || (PyObject_AsReadBuffer(iv, &ibuf, &ilen) == -1))
        return NULL;

    if (!EVP_CipherInit(ctx, cipher, (unsigned char *)kbuf,
                        (unsigned char *)ibuf, mode)) {
        PyErr_SetString(_evp_err, ERR_reason_error_string(ERR_get_error()));
        return NULL;
    }
    Py_INCREF(Py_None);
    return Py_None;
}

PyObject *cipher_update(EVP_CIPHER_CTX *ctx, PyObject *blob) {
    const void *buf;
    int len, olen;
    void *obuf;
    PyObject *ret;

    if (m2_PyObject_AsReadBufferInt(blob, &buf, &len) == -1)
        return NULL;

    if (!(obuf = PyMem_Malloc(len + EVP_CIPHER_CTX_block_size(ctx) - 1))) {
        PyErr_SetString(PyExc_MemoryError, "cipher_update");
        return NULL;
    }
    if (!EVP_CipherUpdate(ctx, obuf, &olen, (unsigned char *)buf, len)) {
        PyMem_Free(obuf);
        PyErr_SetString(_evp_err, ERR_reason_error_string(ERR_get_error()));
        return NULL;
    }

#if PY_MAJOR_VERSION >= 3
    ret = PyBytes_FromStringAndSize(obuf, olen);
#else
    ret = PyString_FromStringAndSize(obuf, olen);
#endif

    PyMem_Free(obuf);
    return ret;
}

PyObject *cipher_final(EVP_CIPHER_CTX *ctx) {
    void *obuf;
    int olen;
    PyObject *ret;

    if (!(obuf = PyMem_Malloc(ctx->cipher->block_size))) {
        PyErr_SetString(PyExc_MemoryError, "cipher_final");
        return NULL;
    }
    if (!EVP_CipherFinal(ctx, (unsigned char *)obuf, &olen)) {
        PyMem_Free(obuf);
        PyErr_SetString(_evp_err, ERR_reason_error_string(ERR_get_error()));
        return NULL;
    }

#if PY_MAJOR_VERSION >= 3
    ret = PyBytes_FromStringAndSize(obuf, olen);
#else
    ret = PyString_FromStringAndSize(obuf, olen);
#endif

    PyMem_Free(obuf);
    return ret;
}

PyObject *sign_update(EVP_MD_CTX *ctx, PyObject *blob) {
    const void *buf;
    Py_ssize_t len;

    if (PyObject_AsReadBuffer(blob, &buf, &len) == -1)
        return NULL;

    if (!EVP_SignUpdate(ctx, buf, len)) {
        PyErr_SetString(_evp_err, ERR_reason_error_string(ERR_get_error()));
        return NULL;
    }
    Py_INCREF(Py_None);
    return Py_None;
}

PyObject *sign_final(EVP_MD_CTX *ctx, EVP_PKEY *pkey) {
    PyObject *ret;
    unsigned char *sigbuf;
    unsigned int siglen = EVP_PKEY_size(pkey);

    sigbuf = (unsigned char*)OPENSSL_malloc(siglen);
    if (!sigbuf) {
        PyErr_SetString(PyExc_MemoryError, "sign_final");
        return NULL;
    }

    if (!EVP_SignFinal(ctx, sigbuf, &siglen, pkey)) {
        OPENSSL_cleanse(sigbuf, siglen);
        OPENSSL_free(sigbuf);
        PyErr_SetString(_evp_err, ERR_reason_error_string(ERR_get_error()));
        return NULL;
    }

#if PY_MAJOR_VERSION >= 3
    ret = PyBytes_FromStringAndSize((char*)sigbuf, siglen);
#else
    ret = PyString_FromStringAndSize((char*)sigbuf, siglen);
#endif

    OPENSSL_cleanse(sigbuf, siglen);
    OPENSSL_free(sigbuf);
    return ret;
}

int verify_update(EVP_MD_CTX *ctx, PyObject *blob) {
    const void *buf;
    Py_ssize_t len;

    if (PyObject_AsReadBuffer(blob, &buf, &len) == -1)
        return -1;

    return EVP_VerifyUpdate(ctx, buf, len);
}


int verify_final(EVP_MD_CTX *ctx, PyObject *blob, EVP_PKEY *pkey) {
    unsigned char *kbuf;
    int len;

    if (m2_PyObject_AsReadBufferInt(blob, (const void **)&kbuf, &len) == -1)
        return -1;

    return EVP_VerifyFinal(ctx, kbuf, len, pkey);
}
%}

%inline %{
int pkey_write_pem_no_cipher(EVP_PKEY *pkey, BIO *f, PyObject *pyfunc) {
    int ret;

    Py_INCREF(pyfunc);
    Py_BEGIN_ALLOW_THREADS
    ret = PEM_write_bio_PKCS8PrivateKey(f, pkey, NULL, NULL, 0,
            passphrase_callback, (void *)pyfunc);
    Py_END_ALLOW_THREADS
    Py_DECREF(pyfunc);
    return ret;
}
%}

%inline %{
int pkey_write_pem(EVP_PKEY *pkey, BIO *f, EVP_CIPHER *cipher, PyObject *pyfunc) {
    int ret;

    Py_INCREF(pyfunc);
    Py_BEGIN_ALLOW_THREADS
    ret = PEM_write_bio_PKCS8PrivateKey(f, pkey, cipher, NULL, 0,
            passphrase_callback, (void *)pyfunc);
    Py_END_ALLOW_THREADS
    Py_DECREF(pyfunc);
    return ret;
}
%}

%inline %{
EVP_PKEY *pkey_read_pem(BIO *f, PyObject *pyfunc) {
    EVP_PKEY *pk;

    Py_INCREF(pyfunc);
    Py_BEGIN_ALLOW_THREADS
    pk = PEM_read_bio_PrivateKey(f, NULL, passphrase_callback, (void *)pyfunc);
    Py_END_ALLOW_THREADS
    Py_DECREF(pyfunc);
    return pk;
}

EVP_PKEY *pkey_read_pem_pubkey(BIO *f, PyObject *pyfunc) {
    EVP_PKEY *pk;

    Py_INCREF(pyfunc);
    Py_BEGIN_ALLOW_THREADS
    pk = PEM_read_bio_PUBKEY(f, NULL, passphrase_callback, (void *)pyfunc);
    Py_END_ALLOW_THREADS
    Py_DECREF(pyfunc);
    return pk;
}

int pkey_assign_rsa(EVP_PKEY *pkey, RSA *rsa) {
    return EVP_PKEY_assign_RSA(pkey, rsa);
}

PyObject *pkey_as_der(EVP_PKEY *pkey) {
    unsigned char * pp = NULL;
    int len;
    PyObject * der;
    len = i2d_PUBKEY(pkey, &pp);
    if (len < 0){
        PyErr_SetString(PyExc_ValueError, "EVP_PKEY as DER failed");
        return NULL;
    }

#if PY_MAJOR_VERSION >= 3
    der = PyBytes_FromStringAndSize((char*)pp, len);
#else
    der = PyString_FromStringAndSize((char*)pp, len);
#endif

    OPENSSL_free(pp);
    return der;
}

PyObject *pkey_get_modulus(EVP_PKEY *pkey)
{
    RSA *rsa;
    DSA *dsa;
    BIO *bio;
    BUF_MEM *bptr;
    PyObject *ret;

    switch (pkey->type) {
        case EVP_PKEY_RSA:
            rsa = EVP_PKEY_get1_RSA(pkey);

            bio = BIO_new(BIO_s_mem());
            if (!bio) {
                RSA_free(rsa);
                PyErr_SetString(PyExc_MemoryError, "pkey_get_modulus");
                return NULL;
            }

            if (!BN_print(bio, rsa->n)) {
                PyErr_SetString(PyExc_RuntimeError,
                      ERR_error_string(ERR_get_error(), NULL));
                BIO_free(bio);
                RSA_free(rsa);
                return NULL;
            }
            BIO_get_mem_ptr(bio, &bptr);

#if PY_MAJOR_VERSION >= 3
            ret = PyBytes_FromStringAndSize(bptr->data, bptr->length);
#else
            ret = PyString_FromStringAndSize(bptr->data, bptr->length);
#endif

            BIO_set_close(bio, BIO_CLOSE);
            BIO_free(bio);
            RSA_free(rsa);

            return ret;
            break;

        case EVP_PKEY_DSA:
            dsa = EVP_PKEY_get1_DSA(pkey);

            bio = BIO_new(BIO_s_mem());
            if (!bio) {
                DSA_free(dsa);
                PyErr_SetString(PyExc_MemoryError, "pkey_get_modulus");
                return NULL;
            }

            if (!BN_print(bio, dsa->pub_key)) {
                PyErr_SetString(PyExc_RuntimeError,
                      ERR_error_string(ERR_get_error(), NULL));
                BIO_free(bio);
                DSA_free(dsa);
                return NULL;
            }
            BIO_get_mem_ptr(bio, &bptr);

#if PY_MAJOR_VERSION >= 3
            ret = PyBytes_FromStringAndSize(bptr->data, bptr->length);
#else
            ret = PyString_FromStringAndSize(bptr->data, bptr->length);
#endif

            BIO_set_close(bio, BIO_CLOSE);
            BIO_free(bio);
            DSA_free(dsa);

            return ret;
            break;

        default:
            PyErr_SetString(PyExc_ValueError, "unsupported key type");
            return NULL;
    }

    return NULL;
}

%}
